module gitlab.com/egory4eff-x/go-kata

go 1.20

require (
	github.com/PuerkitoBio/goquery v1.8.1
	github.com/brianvoe/gofakeit v3.18.0+incompatible
	github.com/brianvoe/gofakeit/v6 v6.23.0
	github.com/gin-gonic/gin v1.9.1
	github.com/go-chi/chi v1.5.4
	github.com/go-chi/chi/v5 v5.0.8
	github.com/jmoiron/sqlx v1.3.5
	github.com/json-iterator/go v1.1.12
	github.com/lib/pq v1.10.9
	github.com/mattn/go-sqlite3 v1.14.16
	github.com/rs/zerolog v1.29.1
	github.com/tebeka/selenium v0.9.9
	gitlab.com/mezigar/go-kata-course-2 v0.0.0-20230517134022-7a9e25013a13
	golang.org/x/sync v0.1.0
)

require (
	github.com/andybalholm/cascadia v1.3.1 // indirect
	github.com/blang/semver v3.5.1+incompatible // indirect
	github.com/bytedance/sonic v1.9.2 // indirect
	github.com/chenzhuoyu/base64x v0.0.0-20221115062448-fe3a3abad311 // indirect
	github.com/gabriel-vasile/mimetype v1.4.2 // indirect
	github.com/gin-contrib/sse v0.1.0 // indirect
	github.com/go-playground/locales v0.14.1 // indirect
	github.com/go-playground/universal-translator v0.18.1 // indirect
	github.com/go-playground/validator/v10 v10.14.1 // indirect
	github.com/goccy/go-json v0.10.2 // indirect
	github.com/klauspost/cpuid/v2 v2.2.5 // indirect
	github.com/leodido/go-urn v1.2.4 // indirect
	github.com/mattn/go-colorable v0.1.13 // indirect
	github.com/mattn/go-isatty v0.0.19 // indirect
	github.com/modern-go/concurrent v0.0.0-20180306012644-bacd9c7ef1dd // indirect
	github.com/modern-go/reflect2 v1.0.2 // indirect
	github.com/pelletier/go-toml/v2 v2.0.9 // indirect
	github.com/twitchyliquid64/golang-asm v0.15.1 // indirect
	github.com/ugorji/go/codec v1.2.11 // indirect
	golang.org/x/arch v0.4.0 // indirect
	golang.org/x/crypto v0.11.0 // indirect
	golang.org/x/net v0.12.0 // indirect
	golang.org/x/sys v0.10.0 // indirect
	golang.org/x/text v0.11.0 // indirect
	google.golang.org/protobuf v1.31.0 // indirect
	gopkg.in/yaml.v3 v3.0.1 // indirect
)
