module gitlab.com/egory4eff-x/go-kata/module2/module/homework

go 1.20

require (
	github.com/json-iterator/go v1.1.12 // indirect
	github.com/modern-go/concurrent v0.0.0-20180228061459-e0a39a4cb421 // indirect
	github.com/modern-go/reflect2 v1.0.2 // indirect
	github.com/ptflp/godecoder v0.0.1 // indirect
)
